{
  "spec_dir": "./",
  "spec_files": [
    "*.spec.[jt]s",
    "models/**/*.spec.[jt]s",
    "routes/**/*.spec.[jt]s",
    "src/**/*.spec.[jt]s"
  ],
  "stopSpecOnExpectationFailure": false,
  "random": false
}
